{
    "functions": [
        {
            "category": "",
            "declaration": "",
            "deprecated": null,
            "description": "",
            "name": "geterrorhandler",
            "notes": [],
            "params": [],
            "returns": {
                "description": "returns the runtime error handler.",
                "type": "string"
            },
            "side": "shared",
            "version": "0.0.1"
        },
        {
            "category": "",
            "declaration": "",
            "deprecated": null,
            "description": "test",
            "name": "getdefaultdelegate",
            "notes": [],
            "params": [
                {
                    "default": null,
                    "description": "\n\n“number”\t\tdefault numbers delegate (integers & floats)\n\n“string”\t\tdefault string delegate\n\n“array”\t\tdefault array delegate\n\n“table”\t\tdefault table delegate\n\n“class”\t\tdefault class delegate\n\n“instance”\t\tdefault instance delegate\n\n“weakref”\t\tdefault weakref delegate\n\n“generator”\t\tdefault generator delegate\n\n“thread”\t\tdefault thread delegate",
                    "name": "type",
                    "type": "string"
                }
            ],
            "returns": {
                "description": "returns a delegate for specific builtin type or null if delegate for specific type doesn’t exists",
                "type": "string"
            },
            "side": "shared",
            "version": "0.0.1"
        },
        {
            "category": "",
            "declaration": "",
            "deprecated": null,
            "description": "test",
            "name": "getstacktop",
            "notes": [],
            "params": [],
            "returns": {
                "description": "returns the index of the top of the stack (useful for debugging)",
                "type": "string"
            },
            "side": "shared",
            "version": "0.0.1"
        },
        {
            "category": "",
            "declaration": "",
            "deprecated": null,
            "description": "test",
            "name": "getstacksize",
            "notes": [],
            "params": [],
            "returns": {
                "description": "returns the current stack size (useful for debugging)",
                "type": "string"
            },
            "side": "shared",
            "version": "0.0.1"
        },
        {
            "category": "",
            "declaration": "",
            "deprecated": null,
            "description": "test",
            "name": "min",
            "notes": [],
            "params": [
                {
                    "default": null,
                    "description": "",
                    "name": "...|array",
                    "type": "any"
                }
            ],
            "returns": {
                "description": "returns the smallest item from passed arguments",
                "type": "string"
            },
            "side": "shared",
            "version": "0.0.1"
        },
        {
            "category": "",
            "declaration": "",
            "deprecated": null,
            "description": "test",
            "name": "max",
            "notes": [],
            "params": [
                {
                    "default": null,
                    "description": "",
                    "name": "...|array",
                    "type": "any"
                }
            ],
            "returns": {
                "description": "returns the largest item from passed arguments",
                "type": "string"
            },
            "side": "shared",
            "version": "0.0.1"
        },
        {
            "category": "",
            "declaration": "",
            "deprecated": null,
            "description": "test",
            "name": "clamp",
            "notes": [],
            "params": [
                {
                    "default": null,
                    "description": "",
                    "name": "x",
                    "type": "value"
                },
                {
                    "default": null,
                    "description": "",
                    "name": "min",
                    "type": "value"
                },
                {
                    "default": null,
                    "description": "",
                    "name": "max",
                    "type": "value"
                }
            ],
            "returns": {
                "description": "returns the clamped x value between min and max range",
                "type": "string"
            },
            "side": "shared",
            "version": "0.0.1"
        },
        {
            "category": "",
            "declaration": "",
            "deprecated": null,
            "description": "test",
            "name": "round",
            "notes": [],
            "params": [
                {
                    "default": null,
                    "description": "",
                    "name": "x",
                    "type": "value"
                },
                {
                    "default": 0,
                    "description": "",
                    "name": "digits",
                    "type": "int"
                }
            ],
            "returns": {
                "description": "returns the rounded x value up to specified digit",
                "type": "string"
            },
            "side": "shared",
            "version": "0.0.1"
        },
        {
            "category": "",
            "declaration": "",
            "deprecated": null,
            "description": "test",
            "name": "random",
            "notes": [],
            "params": [
                {
                    "default": 0.0,
                    "description": "",
                    "name": "min",
                    "type": "float"
                },
                {
                    "default": 1.0,
                    "description": "",
                    "name": "max",
                    "type": "float"
                }
            ],
            "returns": {
                "description": "returns a pseudorandom integer in the range min, max. If you don’t pass min, max arguments, pseudorandom float in range <0.0, 1.0) is returned instead.",
                "type": "integer"
            },
            "side": "shared",
            "version": "0.0.1"
        },
        {
            "category": "",
            "declaration": "",
            "deprecated": null,
            "description": "sets the starting point for generating a series of pseudorandom integers by random function",
            "name": "randomseed",
            "notes": [],
            "params": [
                {
                    "default": null,
                    "description": "",
                    "name": "seed",
                    "type": "int"
                }
            ],
            "returns": {},
            "side": "shared",
            "version": "0.0.1"
        },
        {
            "category": "",
            "declaration": "",
            "deprecated": null,
            "description": "reads a content from the stream.",
            "name": "file.read",
            "notes": [],
            "params": [
                {
                    "default": null,
                    "description": "\n\n“*a”\t\treads the whole file content\n\n“*l”\t\treads the next line (doesn’t contain ‘n’ character at the end)\n\n“*L”\t\treads the next line (contains ‘n’ character at the end)\n\n“*number”\t\treads the next number of bytes from file\n\nint\t\treads the next number of bytes from file",
                    "name": "type",
                    "type": "int|string"
                }
            ],
            "returns": {
                "description": "",
                "type": "string"
            },
            "side": "shared",
            "version": "0.0.1"
        },
        {
            "category": "",
            "declaration": "",
            "deprecated": null,
            "description": "writes a string in the stream",
            "name": "file.write",
            "notes": [],
            "params": [
                {
                    "default": null,
                    "description": "the source text containing the data to be written",
                    "name": "text",
                    "type": "string"
                }
            ],
            "returns": {},
            "side": "shared",
            "version": "0.0.1"
        },
        {
            "category": "",
            "declaration": "",
            "deprecated": null,
            "description": "read n bytes from the stream and returns them as string",
            "name": "blob.read",
            "notes": [],
            "params": [
                {
                    "default": null,
                    "description": "number of bytes to read",
                    "name": "size",
                    "type": "int"
                }
            ],
            "returns": {
                "description": "",
                "type": "string"
            },
            "side": "shared",
            "version": "0.0.1"
        },
        {
            "category": "",
            "declaration": "",
            "deprecated": null,
            "description": "writes a string in the stream",
            "name": "blob.write",
            "notes": [],
            "params": [
                {
                    "default": null,
                    "description": "the source text containing the data to be written",
                    "name": "text",
                    "type": "string"
                }
            ],
            "returns": {},
            "side": "shared",
            "version": "0.0.1"
        },
        {
            "category": "",
            "declaration": "",
            "deprecated": null,
            "description": "test",
            "name": "blob.tostring",
            "notes": [],
            "params": [],
            "returns": {
                "description": "returns the whole blob converted to string.",
                "type": "string"
            },
            "side": "shared",
            "version": "0.0.1"
        },
        {
            "category": "",
            "declaration": "",
            "deprecated": null,
            "description": "starts the thread with the specified parameters. The function accepts an array containing the parameters that will be passed to the called function.",
            "name": "thread.acall",
            "notes": [],
            "params": [
                {
                    "default": null,
                    "description": "",
                    "name": "array_args",
                    "type": "array"
                }
            ],
            "returns": {},
            "side": "shared",
            "version": "0.0.1"
        },
        {
            "category": "",
            "declaration": "",
            "deprecated": null,
            "description": "returns an array of tables containing two indexes (“begin” and “end”) of all of the matches of the regular expression in the string str. An array entry is created for each captured sub expressions. If no match occurs returns null. The search starts from the index start of the string; if start is omitted the search starts from the beginning of the string.\nThe first element of the returned array(index 0) always contains the complete match.",
            "name": "regexp.captureall",
            "notes": [],
            "params": [
                {
                    "default": null,
                    "description": "",
                    "name": "str",
                    "type": "string"
                },
                {
                    "default": null,
                    "description": "",
                    "name": "start",
                    "type": "string"
                }
            ],
            "returns": {
                "description": "",
                "type": "array"
            },
            "side": "shared",
            "version": "0.0.1"
        },
        {
            "category": "",
            "declaration": "",
            "deprecated": null,
            "description": "returns the interpolated float result between the two float values. t is inside [0, 1]",
            "name": "lerp",
            "notes": [],
            "params": [
                {
                    "default": null,
                    "description": "",
                    "name": "x",
                    "type": "float"
                },
                {
                    "default": null,
                    "description": "",
                    "name": "y",
                    "type": "float"
                },
                {
                    "default": null,
                    "description": "",
                    "name": "t",
                    "type": "float"
                }
            ],
            "returns": {
                "description": "",
                "type": "float"
            },
            "side": "shared",
            "version": "0.0.1"
        }
    ]
}